[{"name": "Paracetamol 500mg", "nha_san_xuat": "Mekophar", "so_luong": "4", "don_vi": "viên"}, 
 {"name": "Panadol extra", "nha_san_xuat": "Panadol", "so_luong": "11", "don_vi": "viên"}, 
 {"name": "Ctt Beliver", "nha_san_xuat": "Beliver", "so_luong": "34", "don_vi": "chai"} 
 ]
